EESchema Schematic File Version 4
EELAYER 30 0
EELAYER END
$Descr A4 11693 8268
encoding utf-8
Sheet 1 4
Title "Uninterupted Power Supply (Micro-HAT)"
Date "2021-06-04"
Rev "1"
Comp "Group 21"
Comment1 "This Schematic is licensed under MIT Open Source License."
Comment2 ""
Comment3 ""
Comment4 ""
$EndDescr
$Comp
L Connector_Generic:Conn_02x20_Odd_Even J1
U 1 1 5C77771F
P 5750 2350
F 0 "J1" H 5800 3467 50  0000 C CNN
F 1 "GPIO_CONNECTOR" H 5800 3376 50  0000 C CNN
F 2 "lib:PinSocket_2x20_P2.54mm_Vertical_Centered_Anchor" H 5750 2350 50  0001 C CNN
F 3 "~" H 5750 2350 50  0001 C CNN
	1    5750 2350
	1    0    0    -1  
$EndComp
$Comp
L power:GND #PWR02
U 1 1 5C777805
P 5350 3500
F 0 "#PWR02" H 5350 3250 50  0001 C CNN
F 1 "GND" H 5355 3327 50  0001 C CNN
F 2 "" H 5350 3500 50  0001 C CNN
F 3 "" H 5350 3500 50  0001 C CNN
	1    5350 3500
	1    0    0    -1  
$EndComp
$Comp
L power:GND #PWR03
U 1 1 5C777838
P 6250 3500
F 0 "#PWR03" H 6250 3250 50  0001 C CNN
F 1 "GND" H 6255 3327 50  0001 C CNN
F 2 "" H 6250 3500 50  0001 C CNN
F 3 "" H 6250 3500 50  0001 C CNN
	1    6250 3500
	1    0    0    -1  
$EndComp
Wire Wire Line
	5550 1850 5350 1850
Wire Wire Line
	5350 1850 5350 2650
Wire Wire Line
	5550 2650 5350 2650
Connection ~ 5350 2650
Wire Wire Line
	5350 2650 5350 3350
Wire Wire Line
	5550 3350 5350 3350
Connection ~ 5350 3350
Wire Wire Line
	5350 3350 5350 3500
Wire Wire Line
	6050 1650 6250 1650
Wire Wire Line
	6250 1650 6250 2050
Wire Wire Line
	6050 2050 6250 2050
Connection ~ 6250 2050
Wire Wire Line
	6250 2050 6250 2350
Wire Wire Line
	6050 2350 6250 2350
Connection ~ 6250 2350
Wire Wire Line
	6050 2850 6250 2850
Wire Wire Line
	6250 2350 6250 2850
Connection ~ 6250 2850
Wire Wire Line
	6250 2850 6250 3050
Wire Wire Line
	6050 3050 6250 3050
Connection ~ 6250 3050
Wire Wire Line
	6250 3050 6250 3500
$Comp
L power:+3.3V #PWR01
U 1 1 5C777AB0
P 5300 1350
F 0 "#PWR01" H 5300 1200 50  0001 C CNN
F 1 "+3.3V" H 5315 1523 50  0000 C CNN
F 2 "" H 5300 1350 50  0001 C CNN
F 3 "" H 5300 1350 50  0001 C CNN
	1    5300 1350
	1    0    0    -1  
$EndComp
Wire Wire Line
	5300 1450 5300 1350
Wire Wire Line
	5550 2250 5300 2250
Wire Wire Line
	5300 2250 5300 1450
Connection ~ 5300 1450
Wire Wire Line
	6050 1450 6350 1450
Wire Wire Line
	6350 1450 6350 1350
Wire Wire Line
	6050 1550 6350 1550
Wire Wire Line
	6350 1550 6350 1450
Connection ~ 6350 1450
$Comp
L power:PWR_FLAG #FLG01
U 1 1 5C77824A
P 4900 1350
F 0 "#FLG01" H 4900 1425 50  0001 C CNN
F 1 "PWR_FLAG" H 4900 1524 50  0000 C CNN
F 2 "" H 4900 1350 50  0001 C CNN
F 3 "~" H 4900 1350 50  0001 C CNN
	1    4900 1350
	1    0    0    -1  
$EndComp
Text Notes 6900 1550 0    50   ~ 10
If back powering Pi with 5V \nNOTE that the Raspberry Pi 3B+ and Pi Zero \nand ZeroW do not include an input ZVD.
Wire Notes Line
	6850 1600 8700 1600
Wire Notes Line
	8700 1600 8700 1250
Wire Wire Line
	5300 1450 5550 1450
Wire Wire Line
	4900 1450 4900 1350
Wire Wire Line
	4900 1450 5300 1450
Text Label 4600 1550 0    50   ~ 0
GPIO2_SDA1
Text Label 4600 1650 0    50   ~ 0
GPIO3_SCL1
Text Label 4600 1750 0    50   ~ 0
GPIO4_GPIO_GCLK
Text Label 4600 1950 0    50   ~ 0
GPIO17_GEN0
Text Label 4600 2050 0    50   ~ 0
GPIO27_GEN2
Text Label 4600 2150 0    50   ~ 0
GPIO22_GEN3
Text Label 4600 2350 0    50   ~ 0
GPIO10_SPI_MOSI
Wire Wire Line
	4500 2350 5550 2350
Wire Wire Line
	4500 2450 5550 2450
Wire Wire Line
	4500 2550 5550 2550
Wire Wire Line
	4500 2750 5550 2750
Wire Wire Line
	4500 2850 5550 2850
Wire Wire Line
	4500 2950 5550 2950
Wire Wire Line
	4500 3050 5550 3050
Wire Wire Line
	4500 3150 5550 3150
Wire Wire Line
	4500 2150 5550 2150
Wire Wire Line
	4500 2050 5550 2050
Wire Wire Line
	4500 1950 5550 1950
Wire Wire Line
	4500 1750 5550 1750
Wire Wire Line
	4500 1650 5550 1650
Wire Wire Line
	4500 1550 5550 1550
Text Label 4600 2450 0    50   ~ 0
GPIO9_SPI_MISO
Text Label 4600 2550 0    50   ~ 0
GPIO11_SPI_SCLK
Text Label 4600 2750 0    50   ~ 0
ID_SD
Text Label 4600 2850 0    50   ~ 0
GPIO5
Text Label 4600 2950 0    50   ~ 0
GPIO6
Text Label 4600 3050 0    50   ~ 0
GPIO13
Text Label 4600 3150 0    50   ~ 0
GPIO19
Text Label 4600 3250 0    50   ~ 0
GPIO26
NoConn ~ 4500 1550
NoConn ~ 4500 1650
NoConn ~ 4500 1750
NoConn ~ 4500 1950
NoConn ~ 4500 2050
NoConn ~ 4500 2150
NoConn ~ 4500 2350
NoConn ~ 4500 2450
NoConn ~ 4500 2550
NoConn ~ 4500 2750
NoConn ~ 4500 2850
NoConn ~ 4500 2950
NoConn ~ 4500 3050
NoConn ~ 4500 3150
Text Label 6400 1750 0    50   ~ 0
GPIO14_TXD0
Text Label 6400 1850 0    50   ~ 0
GPIO15_RXD0
Text Label 6400 1950 0    50   ~ 0
GPIO18_GEN1
Text Label 6400 2150 0    50   ~ 0
GPIO23_GEN4
Text Label 6400 2250 0    50   ~ 0
GPIO24_GEN5
Text Label 6400 2450 0    50   ~ 0
GPIO25_GEN6
Text Label 6400 2550 0    50   ~ 0
GPIO8_SPI_CE0_N
Text Label 6400 2650 0    50   ~ 0
GPIO7_SPI_CE1_N
Wire Wire Line
	6050 2550 7100 2550
Wire Wire Line
	6050 2650 7100 2650
Text Label 6400 2750 0    50   ~ 0
ID_SC
Text Label 6400 2950 0    50   ~ 0
GPIO12
Text Label 6400 3150 0    50   ~ 0
GPIO16
Text Label 6400 3250 0    50   ~ 0
GPIO20
Text Label 6400 3350 0    50   ~ 0
GPIO21
Wire Wire Line
	6050 1750 7100 1750
Wire Wire Line
	6050 1850 7100 1850
Wire Wire Line
	6050 1950 7100 1950
Wire Wire Line
	6050 2150 7100 2150
Wire Wire Line
	6050 2250 7100 2250
Wire Wire Line
	6050 2450 7100 2450
Wire Wire Line
	6050 2750 7100 2750
Wire Wire Line
	6050 2950 7100 2950
Wire Wire Line
	6050 3150 7100 3150
Wire Wire Line
	6050 3250 7100 3250
NoConn ~ 7100 1750
NoConn ~ 7100 1850
NoConn ~ 7100 1950
NoConn ~ 7100 2150
NoConn ~ 7100 2250
NoConn ~ 7100 2450
NoConn ~ 7100 2550
NoConn ~ 7100 2650
NoConn ~ 7100 2750
NoConn ~ 7100 2950
NoConn ~ 7100 3150
NoConn ~ 7100 3250
NoConn ~ 7100 3350
Wire Wire Line
	6050 3350 7100 3350
$Comp
L Mechanical:MountingHole H1
U 1 1 5C7C4C81
P 10250 900
F 0 "H1" H 10350 946 50  0000 L CNN
F 1 "MountingHole" H 10350 855 50  0000 L CNN
F 2 "lib:MountingHole_2.7mm_M2.5_uHAT_RPi" H 10250 900 50  0001 C CNN
F 3 "~" H 10250 900 50  0001 C CNN
	1    10250 900 
	1    0    0    -1  
$EndComp
$Comp
L Mechanical:MountingHole H2
U 1 1 5C7C7FBC
P 10250 1100
F 0 "H2" H 10350 1146 50  0000 L CNN
F 1 "MountingHole" H 10350 1055 50  0000 L CNN
F 2 "lib:MountingHole_2.7mm_M2.5_uHAT_RPi" H 10250 1100 50  0001 C CNN
F 3 "~" H 10250 1100 50  0001 C CNN
	1    10250 1100
	1    0    0    -1  
$EndComp
$Comp
L Mechanical:MountingHole H3
U 1 1 5C7C8014
P 10250 1300
F 0 "H3" H 10350 1346 50  0000 L CNN
F 1 "MountingHole" H 10350 1255 50  0000 L CNN
F 2 "lib:MountingHole_2.7mm_M2.5_uHAT_RPi" H 10250 1300 50  0001 C CNN
F 3 "~" H 10250 1300 50  0001 C CNN
	1    10250 1300
	1    0    0    -1  
$EndComp
$Comp
L Mechanical:MountingHole H4
U 1 1 5C7C8030
P 10250 1500
F 0 "H4" H 10350 1546 50  0000 L CNN
F 1 "MountingHole" H 10350 1455 50  0000 L CNN
F 2 "lib:MountingHole_2.7mm_M2.5_uHAT_RPi" H 10250 1500 50  0001 C CNN
F 3 "~" H 10250 1500 50  0001 C CNN
	1    10250 1500
	1    0    0    -1  
$EndComp
$Sheet
S 7050 4950 1550 850 
U 60B6259D
F0 "Status LEDs" 50
F1 "Status LEDs.sch" 50
F2 "9.6V+" I L 7050 5100 50 
F3 "9.6V-" I L 7050 5250 50 
$EndSheet
$Sheet
S 3050 3650 1250 900 
U 60B63FA8
F0 "Current Shunt" 50
F1 "Current Shunt.sch" 50
F2 "GPIO" O R 4300 4100 50 
F3 "9.6+V" I R 4300 4400 50 
F4 "9.6V-" I R 4300 4250 50 
$EndSheet
Text GLabel 1300 1350 0    50   Input ~ 0
12Vcc
$Sheet
S 2700 4900 1600 1150
U 60B63C42
F0 "Power Supply" 50
F1 "Power Supply.sch" 50
F2 "9.6V+" I R 4300 5100 50 
F3 "9.6V-" I R 4300 5250 50 
$EndSheet
Wire Wire Line
	4300 5100 5450 5100
Wire Wire Line
	4300 5250 5600 5250
Wire Wire Line
	4300 4400 5450 4400
Wire Wire Line
	5450 4400 5450 5100
Connection ~ 5450 5100
Wire Wire Line
	4300 4250 5600 4250
Wire Wire Line
	4300 4100 4500 4100
Wire Wire Line
	4500 4100 4500 3250
Wire Wire Line
	4500 3250 5550 3250
Wire Wire Line
	5450 5100 7050 5100
Wire Wire Line
	5600 4250 5600 5250
Connection ~ 5600 5250
Wire Wire Line
	5600 5250 7050 5250
$Comp
L power:+12V #PWR0101
U 1 1 60BD4D0E
P 1450 1350
F 0 "#PWR0101" H 1450 1200 50  0001 C CNN
F 1 "+12V" V 1465 1478 50  0000 L CNN
F 2 "" H 1450 1350 50  0001 C CNN
F 3 "" H 1450 1350 50  0001 C CNN
	1    1450 1350
	0    1    1    0   
$EndComp
Wire Wire Line
	1450 1350 1350 1350
Wire Wire Line
	1350 1350 1350 1200
Wire Wire Line
	1350 1200 1500 1200
Connection ~ 1350 1350
Wire Wire Line
	1350 1350 1300 1350
$Comp
L power:PWR_FLAG #FLG0101
U 1 1 60BE6DF6
P 1500 1200
F 0 "#FLG0101" H 1500 1275 50  0001 C CNN
F 1 "PWR_FLAG" V 1500 1500 50  0000 C CNN
F 2 "" H 1500 1200 50  0001 C CNN
F 3 "~" H 1500 1200 50  0001 C CNN
	1    1500 1200
	0    1    1    0   
$EndComp
Text GLabel 2350 900  0    50   Input ~ 0
+5Vcc
$Comp
L power:+5V #PWR0102
U 1 1 60C08782
P 2500 900
F 0 "#PWR0102" H 2500 750 50  0001 C CNN
F 1 "+5V" V 2515 1073 50  0000 C CNN
F 2 "" H 2500 900 50  0001 C CNN
F 3 "" H 2500 900 50  0001 C CNN
	1    2500 900 
	0    1    1    0   
$EndComp
$Comp
L power:+5V #PWR04
U 1 1 5C777E01
P 6350 1350
F 0 "#PWR04" H 6350 1200 50  0001 C CNN
F 1 "+5V" H 6365 1523 50  0000 C CNN
F 2 "" H 6350 1350 50  0001 C CNN
F 3 "" H 6350 1350 50  0001 C CNN
	1    6350 1350
	1    0    0    -1  
$EndComp
Text GLabel 1300 900  0    50   Input ~ 0
-5Vcc
Wire Wire Line
	1450 900  1350 900 
Wire Wire Line
	1350 900  1350 750 
Wire Wire Line
	1350 750  1500 750 
Connection ~ 1350 900 
Wire Wire Line
	1350 900  1300 900 
$Comp
L power:PWR_FLAG #FLG0103
U 1 1 60C0E6C5
P 1500 750
F 0 "#FLG0103" H 1500 825 50  0001 C CNN
F 1 "PWR_FLAG" V 1500 1050 50  0000 C CNN
F 2 "" H 1500 750 50  0001 C CNN
F 3 "~" H 1500 750 50  0001 C CNN
	1    1500 750 
	0    1    1    0   
$EndComp
$Comp
L power:-5V #PWR0103
U 1 1 60C1161B
P 1450 900
F 0 "#PWR0103" H 1450 1000 50  0001 C CNN
F 1 "-5V" V 1465 1028 50  0000 L CNN
F 2 "" H 1450 900 50  0001 C CNN
F 3 "" H 1450 900 50  0001 C CNN
	1    1450 900 
	0    1    1    0   
$EndComp
Text GLabel 2400 1350 0    50   Input ~ 0
+3.3Vcc
$Comp
L power:+3.3V #PWR0104
U 1 1 60C170FF
P 2550 1350
F 0 "#PWR0104" H 2550 1200 50  0001 C CNN
F 1 "+3.3V" V 2565 1478 50  0000 L CNN
F 2 "" H 2550 1350 50  0001 C CNN
F 3 "" H 2550 1350 50  0001 C CNN
	1    2550 1350
	0    1    1    0   
$EndComp
$Comp
L power:PWR_FLAG #FLG02
U 1 1 5C77CEFA
P 6700 1350
F 0 "#FLG02" H 6700 1425 50  0001 C CNN
F 1 "PWR_FLAG" H 6700 1524 50  0000 C CNN
F 2 "" H 6700 1350 50  0001 C CNN
F 3 "~" H 6700 1350 50  0001 C CNN
	1    6700 1350
	1    0    0    -1  
$EndComp
Wire Wire Line
	6350 1450 6700 1450
Wire Wire Line
	6700 1350 6700 1450
Wire Notes Line
	8700 1250 6850 1250
Wire Notes Line
	6850 1250 6850 1600
Wire Wire Line
	2400 1350 2550 1350
Wire Wire Line
	2350 900  2500 900 
$Comp
L power:GND #PWR0109
U 1 1 60C37570
P 1250 2950
F 0 "#PWR0109" H 1250 2700 50  0001 C CNN
F 1 "GND" H 1255 2777 50  0000 C CNN
F 2 "" H 1250 2950 50  0001 C CNN
F 3 "" H 1250 2950 50  0001 C CNN
	1    1250 2950
	1    0    0    -1  
$EndComp
$Comp
L Connector:USB_OTG J11
U 1 1 60C4FF38
P 1250 2550
F 0 "J11" H 1307 3017 50  0000 C CNN
F 1 "USB_OTG" H 1307 2926 50  0000 C CNN
F 2 "Connector_USB:USB_Micro-B_Molex-105017-0001" H 1400 2500 50  0001 C CNN
F 3 " ~" H 1400 2500 50  0001 C CNN
	1    1250 2550
	1    0    0    -1  
$EndComp
Text GLabel 1550 2350 2    50   Input ~ 0
5V_Out
NoConn ~ 1550 2550
NoConn ~ 1550 2650
NoConn ~ 1550 2750
Wire Wire Line
	1150 2950 1250 2950
Connection ~ 1250 2950
$EndSCHEMATC
