EESchema Schematic File Version 4
EELAYER 30 0
EELAYER END
$Descr A4 11693 8268
encoding utf-8
Sheet 4 4
Title "Power Supply Unit"
Date "2021-06-04"
Rev "1"
Comp "Group 21"
Comment1 "The 12Vcc line is connected to the rechargable 12V battery."
Comment2 "The 5V_Out is connected to a micro USB connector."
Comment3 "Power Flag placed on ground to remove ERC error. "
Comment4 "GND port of LM7805 seen by KiCad to require driving input."
$EndDescr
$Comp
L Device:R R9
U 1 1 60BAAAD7
P 8300 3100
F 0 "R9" H 8370 3146 50  0000 L CNN
F 1 "4700" H 8370 3055 50  0000 L CNN
F 2 "Resistor_SMD:R_0201_0603Metric" V 8230 3100 50  0001 C CNN
F 3 "~" H 8300 3100 50  0001 C CNN
	1    8300 3100
	1    0    0    -1  
$EndComp
$Comp
L Diode:1N914 D7
U 1 1 60BACC23
P 8300 3550
F 0 "D7" V 8346 3470 50  0000 R CNN
F 1 "1N914" V 8255 3470 50  0000 R CNN
F 2 "Diode_THT:D_DO-15_P2.54mm_Vertical_AnodeUp" H 8300 3375 50  0001 C CNN
F 3 "http://www.vishay.com/docs/85622/1n914.pdf" H 8300 3550 50  0001 C CNN
	1    8300 3550
	0    -1   -1   0   
$EndComp
Wire Wire Line
	7800 2850 8300 2850
Wire Wire Line
	8300 2850 8300 2950
Wire Wire Line
	8300 2850 9000 2850
Connection ~ 8300 2850
$Comp
L power:GND #PWR0105
U 1 1 60C28E8F
P 7500 5500
F 0 "#PWR0105" H 7500 5250 50  0001 C CNN
F 1 "GND" H 7505 5327 50  0000 C CNN
F 2 "" H 7500 5500 50  0001 C CNN
F 3 "" H 7500 5500 50  0001 C CNN
	1    7500 5500
	1    0    0    -1  
$EndComp
Wire Wire Line
	7500 3150 7500 5500
$Comp
L power:GND #PWR0107
U 1 1 60C2AD43
P 8300 5500
F 0 "#PWR0107" H 8300 5250 50  0001 C CNN
F 1 "GND" H 8305 5327 50  0000 C CNN
F 2 "" H 8300 5500 50  0001 C CNN
F 3 "" H 8300 5500 50  0001 C CNN
	1    8300 5500
	1    0    0    -1  
$EndComp
$Comp
L Regulator_Linear:LM7805_TO220 U1
U 1 1 60B91084
P 7500 2850
F 0 "U1" H 7500 3092 50  0000 C CNN
F 1 "LM7805_TO220" H 7500 3001 50  0000 C CNN
F 2 "Package_TO_SOT_THT:TO-220-3_Vertical" H 7500 3075 50  0001 C CIN
F 3 "https://www.onsemi.cn/PowerSolutions/document/MC7800-D.PDF" H 7500 2800 50  0001 C CNN
	1    7500 2850
	1    0    0    -1  
$EndComp
Wire Wire Line
	6450 2850 7100 2850
Connection ~ 6450 2850
Wire Wire Line
	5250 4450 5250 4500
$Comp
L power:GND #PWR0108
U 1 1 60BDA1BC
P 5250 4500
F 0 "#PWR0108" H 5250 4250 50  0001 C CNN
F 1 "GND" H 5255 4327 50  0000 C CNN
F 2 "" H 5250 4500 50  0001 C CNN
F 3 "" H 5250 4500 50  0001 C CNN
	1    5250 4500
	1    0    0    -1  
$EndComp
$Comp
L power:GND #PWR0106
U 1 1 60BD94A9
P 6450 5500
F 0 "#PWR0106" H 6450 5250 50  0001 C CNN
F 1 "GND" H 6455 5327 50  0000 C CNN
F 2 "" H 6450 5500 50  0001 C CNN
F 3 "" H 6450 5500 50  0001 C CNN
	1    6450 5500
	1    0    0    -1  
$EndComp
Connection ~ 5250 4150
Wire Wire Line
	4750 4150 5250 4150
Wire Wire Line
	4750 3500 4750 4150
Wire Wire Line
	4400 3500 4750 3500
$Comp
L Transistor_BJT:BC557 Q3
U 1 1 60B9D129
P 4200 3500
F 0 "Q3" H 4391 3454 50  0000 L CNN
F 1 "BC557" H 4391 3545 50  0000 L CNN
F 2 "Package_TO_SOT_THT:TO-92_Inline" H 4400 3425 50  0001 L CIN
F 3 "https://www.onsemi.com/pub/Collateral/BC556BTA-D.pdf" H 4200 3500 50  0001 L CNN
	1    4200 3500
	-1   0    0    1   
$EndComp
Wire Wire Line
	6450 5000 6450 5200
Text HLabel 6450 5450 0    50   Input ~ 0
9.6V-
$Comp
L Device:Battery_Cell Batt1
U 1 1 60B93806
P 6450 5400
F 0 "Batt1" H 6568 5496 50  0000 L CNN
F 1 "9.6v" H 6568 5405 50  0000 L CNN
F 2 "Battery:Battery_Panasonic_CR1025-VSK_Vertical_CircularHoles" V 6450 5460 50  0001 C CNN
F 3 "~" V 6450 5460 50  0001 C CNN
	1    6450 5400
	1    0    0    -1  
$EndComp
Connection ~ 6450 5000
Wire Wire Line
	5800 5000 6450 5000
Wire Wire Line
	4800 5000 5500 5000
Wire Wire Line
	4100 5000 4500 5000
$Comp
L Diode:1N914 WhiteLED1
U 1 1 60BC1047
P 5650 5000
F 0 "WhiteLED1" H 5650 4783 50  0000 C CNN
F 1 "1N914" H 5650 4874 50  0000 C CNN
F 2 "Diode_THT:D_DO-34_SOD68_P2.54mm_Vertical_AnodeUp" H 5650 4825 50  0001 C CNN
F 3 "http://www.vishay.com/docs/85622/1n914.pdf" H 5650 5000 50  0001 C CNN
	1    5650 5000
	-1   0    0    1   
$EndComp
$Comp
L Device:R R7
U 1 1 60BC05C5
P 4650 5000
F 0 "R7" V 4443 5000 50  0000 C CNN
F 1 "50" V 4534 5000 50  0000 C CNN
F 2 "Resistor_SMD:R_0201_0603Metric" V 4580 5000 50  0001 C CNN
F 3 "~" H 4650 5000 50  0001 C CNN
	1    4650 5000
	0    1    1    0   
$EndComp
Text HLabel 6450 5150 0    50   Input ~ 0
9.6V+
Text GLabel 3150 2850 0    50   Input ~ 0
12Vcc
Connection ~ 4100 2850
Wire Wire Line
	4100 2850 3150 2850
Connection ~ 5250 2850
Wire Wire Line
	4100 2850 4100 2900
Wire Wire Line
	5250 2850 4100 2850
Wire Wire Line
	4100 3300 4100 3200
$Comp
L Device:R R8
U 1 1 60BA3655
P 5250 4300
F 0 "R8" H 5320 4346 50  0000 L CNN
F 1 "2200" H 5320 4255 50  0000 L CNN
F 2 "Resistor_SMD:R_0201_0603Metric" V 5180 4300 50  0001 C CNN
F 3 "~" H 5250 4300 50  0001 C CNN
	1    5250 4300
	1    0    0    -1  
$EndComp
$Comp
L Device:R R6
U 1 1 60BA2CD8
P 4100 3050
F 0 "R6" H 4170 3096 50  0000 L CNN
F 1 "33" H 4170 3005 50  0000 L CNN
F 2 "Resistor_SMD:R_0201_0603Metric" V 4030 3050 50  0001 C CNN
F 3 "~" H 4100 3050 50  0001 C CNN
	1    4100 3050
	1    0    0    -1  
$EndComp
Text GLabel 9000 2850 2    50   Input ~ 0
5V_Out
$Comp
L Diode:1N5404 D5
U 1 1 60C5EA10
P 6000 2850
F 0 "D5" H 6000 2633 50  0000 C CNN
F 1 "1N5404" H 6000 2724 50  0000 C CNN
F 2 "Diode_THT:D_DO-15_P2.54mm_Vertical_KathodeUp" H 6000 2675 50  0001 C CNN
F 3 "http://www.vishay.com/docs/88516/1n5400.pdf" H 6000 2850 50  0001 C CNN
	1    6000 2850
	-1   0    0    1   
$EndComp
Wire Wire Line
	5250 2850 5850 2850
Wire Wire Line
	6150 2850 6450 2850
$Comp
L Diode:1N5404 D6
U 1 1 60C60AAB
P 6450 3250
F 0 "D6" V 6404 3330 50  0000 L CNN
F 1 "1N5404" V 6495 3330 50  0000 L CNN
F 2 "Diode_THT:D_DO-15_P2.54mm_Vertical_KathodeUp" H 6450 3075 50  0001 C CNN
F 3 "http://www.vishay.com/docs/88516/1n5400.pdf" H 6450 3250 50  0001 C CNN
	1    6450 3250
	0    1    1    0   
$EndComp
Wire Wire Line
	6450 2850 6450 3100
Wire Wire Line
	6450 3400 6450 5000
$Comp
L Diode:1N4007 D2
U 1 1 60C63E6D
P 4100 4600
F 0 "D2" V 4146 4520 50  0000 R CNN
F 1 "1N4007" V 4055 4520 50  0000 R CNN
F 2 "Diode_THT:D_DO-15_P2.54mm_Vertical_AnodeUp" H 4100 4425 50  0001 C CNN
F 3 "http://www.vishay.com/docs/88503/1n4001.pdf" H 4100 4600 50  0001 C CNN
	1    4100 4600
	0    -1   -1   0   
$EndComp
Wire Wire Line
	4100 3700 4100 4450
Wire Wire Line
	4100 4750 4100 5000
$Comp
L Diode:1N4007 D3
U 1 1 60C65210
P 5250 3200
F 0 "D3" V 5296 3120 50  0000 R CNN
F 1 "1N4007" V 5205 3120 50  0000 R CNN
F 2 "Diode_THT:D_DO-15_P2.54mm_Vertical_AnodeUp" H 5250 3025 50  0001 C CNN
F 3 "http://www.vishay.com/docs/88503/1n4001.pdf" H 5250 3200 50  0001 C CNN
	1    5250 3200
	0    -1   -1   0   
$EndComp
$Comp
L Diode:1N4007 D4
U 1 1 60C663FD
P 5250 3750
F 0 "D4" V 5296 3670 50  0000 R CNN
F 1 "1N4007" V 5205 3670 50  0000 R CNN
F 2 "Diode_THT:D_DO-15_P2.54mm_Vertical_AnodeUp" H 5250 3575 50  0001 C CNN
F 3 "http://www.vishay.com/docs/88503/1n4001.pdf" H 5250 3750 50  0001 C CNN
	1    5250 3750
	0    -1   -1   0   
$EndComp
Wire Wire Line
	5250 2850 5250 3050
Wire Wire Line
	5250 3350 5250 3600
Wire Wire Line
	5250 3900 5250 4150
$Comp
L power:PWR_FLAG #FLG0102
U 1 1 60C6B0AD
P 7100 2850
F 0 "#FLG0102" H 7100 2925 50  0001 C CNN
F 1 "PWR_FLAG" H 7100 3023 50  0000 C CNN
F 2 "" H 7100 2850 50  0001 C CNN
F 3 "~" H 7100 2850 50  0001 C CNN
	1    7100 2850
	1    0    0    -1  
$EndComp
Connection ~ 7100 2850
Wire Wire Line
	7100 2850 7200 2850
$Comp
L power:PWR_FLAG #FLG0104
U 1 1 60C6B42E
P 7500 5500
F 0 "#FLG0104" H 7500 5575 50  0001 C CNN
F 1 "PWR_FLAG" V 7500 5628 50  0000 L CNN
F 2 "" H 7500 5500 50  0001 C CNN
F 3 "~" H 7500 5500 50  0001 C CNN
	1    7500 5500
	0    1    1    0   
$EndComp
Connection ~ 7500 5500
Wire Wire Line
	8300 3250 8300 3400
Wire Wire Line
	8300 3700 8300 5500
$EndSCHEMATC
