EESchema Schematic File Version 4
EELAYER 30 0
EELAYER END
$Descr A4 11693 8268
encoding utf-8
Sheet 2 4
Title "Status LEDs"
Date "2021-06-04"
Rev "1"
Comp "Group 21"
Comment1 "Circuit to be connected in parallel with battery in PSU"
Comment2 ""
Comment3 ""
Comment4 ""
$EndDescr
$Comp
L Diode:1N914 GreenLED1
U 1 1 60B6C709
P 6000 3300
F 0 "GreenLED1" V 6039 3182 50  0000 R CNN
F 1 "LED" V 5948 3182 50  0000 R CNN
F 2 "LED_THT:LED_D3.0mm_Clear" H 6000 3300 50  0001 C CNN
F 3 "~" H 6000 3300 50  0001 C CNN
	1    6000 3300
	0    -1   -1   0   
$EndComp
$Comp
L Diode:1N914 RedLED1
U 1 1 60B6D890
P 7100 3300
F 0 "RedLED1" V 7139 3182 50  0000 R CNN
F 1 "LED" V 7048 3182 50  0000 R CNN
F 2 "LED_THT:LED_D3.0mm" H 7100 3300 50  0001 C CNN
F 3 "~" H 7100 3300 50  0001 C CNN
	1    7100 3300
	0    -1   -1   0   
$EndComp
$Comp
L Transistor_BJT:BC547 Q1
U 1 1 60B724F6
P 5900 4100
F 0 "Q1" H 6091 4146 50  0000 L CNN
F 1 "BC547" H 6091 4055 50  0000 L CNN
F 2 "Package_TO_SOT_THT:TO-92_Inline" H 6100 4025 50  0001 L CIN
F 3 "https://www.onsemi.com/pub/Collateral/BC550-D.pdf" H 5900 4100 50  0001 L CNN
	1    5900 4100
	1    0    0    -1  
$EndComp
$Comp
L Transistor_BJT:BC547 Q2
U 1 1 60B7499D
P 7000 4150
F 0 "Q2" H 7191 4196 50  0000 L CNN
F 1 "BC547" H 7191 4105 50  0000 L CNN
F 2 "Package_TO_SOT_THT:TO-92_Inline" H 7200 4075 50  0001 L CIN
F 3 "https://www.onsemi.com/pub/Collateral/BC550-D.pdf" H 7000 4150 50  0001 L CNN
	1    7000 4150
	1    0    0    -1  
$EndComp
$Comp
L Device:R R2
U 1 1 60B78BC5
P 5400 4100
F 0 "R2" V 5193 4100 50  0000 C CNN
F 1 "10000" V 5284 4100 50  0000 C CNN
F 2 "Resistor_SMD:R_0201_0603Metric" V 5330 4100 50  0001 C CNN
F 3 "~" H 5400 4100 50  0001 C CNN
	1    5400 4100
	0    1    1    0   
$EndComp
$Comp
L Device:R R1
U 1 1 60B79B08
P 5100 4350
F 0 "R1" H 5030 4304 50  0000 R CNN
F 1 "10000" H 5030 4395 50  0000 R CNN
F 2 "Resistor_SMD:R_0201_0603Metric" V 5030 4350 50  0001 C CNN
F 3 "~" H 5100 4350 50  0001 C CNN
	1    5100 4350
	-1   0    0    1   
$EndComp
$Comp
L Device:R R3
U 1 1 60B7AFAF
P 6000 3700
F 0 "R3" H 5930 3654 50  0000 R CNN
F 1 "1000" H 5930 3745 50  0000 R CNN
F 2 "Resistor_SMD:R_0201_0603Metric" V 5930 3700 50  0001 C CNN
F 3 "~" H 6000 3700 50  0001 C CNN
	1    6000 3700
	-1   0    0    1   
$EndComp
$Comp
L Device:R R5
U 1 1 60B7BCC8
P 7100 3700
F 0 "R5" H 7030 3654 50  0000 R CNN
F 1 "500" H 7030 3745 50  0000 R CNN
F 2 "Resistor_SMD:R_0201_0603Metric" V 7030 3700 50  0001 C CNN
F 3 "~" H 7100 3700 50  0001 C CNN
	1    7100 3700
	-1   0    0    1   
$EndComp
Wire Wire Line
	5550 4100 5700 4100
Wire Wire Line
	5250 4100 5100 4100
Wire Wire Line
	5100 4100 5100 4200
Wire Wire Line
	5100 4100 5100 3900
Connection ~ 5100 4100
Wire Wire Line
	6000 3850 6000 3900
Wire Wire Line
	6000 3450 6000 3550
Wire Wire Line
	7100 3450 7100 3550
Wire Wire Line
	7100 3850 7100 3950
Wire Wire Line
	6000 4300 6000 4550
Wire Wire Line
	6000 4550 5100 4550
Wire Wire Line
	5100 4550 5100 4500
Wire Wire Line
	6000 4550 7100 4550
Wire Wire Line
	7100 4550 7100 4350
Connection ~ 6000 4550
Wire Wire Line
	6000 3150 7100 3150
$Comp
L Device:R R4
U 1 1 60B7F651
P 6400 3950
F 0 "R4" V 6193 3950 50  0000 C CNN
F 1 "10000" V 6284 3950 50  0000 C CNN
F 2 "Resistor_SMD:R_0201_0603Metric" V 6330 3950 50  0001 C CNN
F 3 "~" H 6400 3950 50  0001 C CNN
	1    6400 3950
	0    1    1    0   
$EndComp
Wire Wire Line
	6250 3950 6150 3950
Wire Wire Line
	6150 3950 6150 3900
Wire Wire Line
	6150 3900 6000 3900
Connection ~ 6000 3900
Wire Wire Line
	6550 3950 6650 3950
Wire Wire Line
	6650 3950 6650 4150
Wire Wire Line
	6650 4150 6800 4150
$Comp
L Diode:DZ2S047X0L D1
U 1 1 60B81C7B
P 5100 3750
F 0 "D1" V 5054 3830 50  0000 L CNN
F 1 "DZ2S047X0L" V 5145 3830 50  0000 L CNN
F 2 "Diode_SMD:D_SOD-523" H 5100 3575 50  0001 C CNN
F 3 "https://industrial.panasonic.com/content/data/SC/ds/ds4/DZ2S04700L_E.pdf" H 5100 3750 50  0001 C CNN
	1    5100 3750
	0    1    1    0   
$EndComp
Wire Wire Line
	5100 3600 5100 3150
Wire Wire Line
	5100 3150 6000 3150
Connection ~ 6000 3150
Wire Wire Line
	5100 3150 4650 3150
Wire Wire Line
	4650 3150 4650 3650
Wire Wire Line
	4650 3650 4250 3650
Connection ~ 5100 3150
Wire Wire Line
	5100 4550 4650 4550
Wire Wire Line
	4650 4550 4650 4000
Wire Wire Line
	4650 4000 4250 4000
Connection ~ 5100 4550
Text HLabel 4250 3650 0    50   Input ~ 0
9.6V+
Text HLabel 4250 4000 0    50   Input ~ 0
9.6V-
$EndSCHEMATC
